…
``` r
geom_organelle <- ggregions::write_geom_region_locale(cell_sf)
stamp_organelle <- ggregions::write_stamp_region_locale(cell_sf)

cell_sf
```

    ## Simple feature collection with 1088 features and 2 fields
    ## Geometry type: MULTIPOLYGON
    ## Dimension:     XY
    ## Bounding box:  xmin: 5.4 ymin: -483.4 xmax: 606.7 ymax: -8.4
    ## CRS:           NA
    ## # A tibble: 1,088 × 3
    ##    organelle       group                                                geometry
    ##    <chr>           <chr>                                          <MULTIPOLYGON>
    ##  1 actin_filaments 6_10  (((43.4 -268.8, 52.5 -250.1, 62.4 -231.9, 74.4 -214.6,…
    ##  2 actin_filaments 6_11  (((111 -398.1, 113.7 -400.7, 116.4 -403.2, 96.6 -396.2…
    ##  3 actin_filaments 6_12  (((112.1 -396.9, 112.6 -397.1, 113.2 -397.3, 121 -400.…
    ##  4 actin_filaments 6_13  (((170.7 -422.4, 175.3 -423.8, 179.9 -425.2, 184.8 -42…
    ##  5 actin_filaments 6_14  (((197.2 -430.3, 203.4 -432.1, 209.7 -433.9, 206.5 -43…
    ##  6 actin_filaments 6_15  (((554.9 -230.1, 554.3 -238.9, 553.9 -247.6, 537.5 -17…
    ##  7 actin_filaments 6_16  (((554.6 -192.2, 556.1 -196.3, 557.6 -200.4, 557.1 -20…
    ##  8 actin_filaments 6_17  (((557.9 -245.2, 559.4 -261.7, 560.9 -278.7, 559 -269.…
    ##  9 actin_filaments 6_18  (((523 -91.4, 531 -97, 537.9 -102.8, 543.2 -128.5, 547…
    ## 10 actin_filaments 6_19  (((512.7 -82.2, 512 -80.5, 511.3 -78.8, 519.4 -82.2, 5…
    ## # ℹ 1,078 more rows
…
